…
``` r
events_long <- events |>
  reframe_events(start, end) |>
  dplyr::slice_min(order_by = duration, n = 1, by = unit_date)
#> Reframing using grouping by: `event_id`, `title`, `duration`, `emoji`, and
#> `details`
events_long
#> # A tibble: 29 × 6
#>    event_id title   duration emoji details                            unit_date 
#>       <int> <chr>   <drtn>   <chr> <chr>                              <date>    
#>  1        1 Event 1 3 days   🐟    Adipiscing mauris et augue dapibu… 2024-04-15
#>  2        1 Event 1 3 days   🐟    Adipiscing mauris et augue dapibu… 2024-04-16
#>  3        1 Event 1 3 days   🐟    Adipiscing mauris et augue dapibu… 2024-04-17
#>  4        2 Event 2 2 days   🐩    Sit aliquam feugiat primis duis s… 2024-04-23
#>  5        2 Event 2 2 days   🐩    Sit aliquam feugiat primis duis s… 2024-04-24
#>  6        3 Event 3 1 days   🐨    Lorem placerat sagittis vehicula … 2024-05-01
#>  7        4 Event 4 6 days   🐚    Ipsum mollis fermentum in risus r… 2024-05-30
#>  8        4 Event 4 6 days   🐚    Ipsum mollis fermentum in risus r… 2024-05-31
#>  9        4 Event 4 6 days   🐚    Ipsum mollis fermentum in risus r… 2024-06-01
#> 10        4 Event 4 6 days   🐚    Ipsum mollis fermentum in risus r… 2024-06-02
#> # ℹ 19 more rows
```
…
