Calculate variables for calendar layout — calc_calendar_vars • ggtilecal
…
    Value

tibble with additional calendar layout variables

    Examples

make_empty_month_days(c("2024-01-01", "2024-02-01")) |>
  calc_calendar_vars(unit_date)
#> # A tibble: 60 × 8
#>    unit_date  TC_year TC_month_label TC_wday_label TC_mday TC_wday TC_month_week
#>    <date>       <dbl> <ord>          <ord>           <int>   <dbl>         <dbl>
#>  1 2024-01-01    2024 Jan            Mon                 1       1             1
#>  2 2024-01-02    2024 Jan            Tue                 2       2             1
#>  3 2024-01-03    2024 Jan            Wed                 3       3             1
#>  4 2024-01-04    2024 Jan            Thu                 4       4             1
#>  5 2024-01-05    2024 Jan            Fri                 5       5             1
#>  6 2024-01-06    2024 Jan            Sat                 6       6             1
#>  7 2024-01-07    2024 Jan            Sun                 7       7             1
#>  8 2024-01-08    2024 Jan            Mon                 8       1             2
#>  9 2024-01-09    2024 Jan            Tue                 9       2             2
#> 10 2024-01-10    2024 Jan            Wed                10       3             2
#> # ℹ 50 more rows
#> # ℹ 1 more variable: TC_is_weekend <lgl>
…
